ID;NOM;CATÉGORIE;PRIX;DATE;NOTE;ACHETÉ?;IMG
0;Call Of Duty : Modern Warfare 2;FPS;89.99;2022-10-28;9.8;non;MW2.jpg
1;Mario Kart Wii;Course;29.99;2008-4-27;7.5;non;MKW.jpg
2;Civilization 6;Stratégie;59.99;2016-10-20;8.8;non;CIV6.jpg
3;Roblox;Construction;0.00;2006-9-1;9.1;non;Roblox.jpg
4;God Of War;Aventure;49.99;2018-4-20;10;non;GOW.jpg
5;Team Fortress 2;FPS;0.00;2007-10-10;9.2;non;TF2.jpg
6;Stardew Valley;Gestion;14.99;2016-2-26;10;non;Stardew.jpg
